alpine-base-3.13.5-r0
alpine-baselayout-3.2.0-r8
alpine-conf-3.11.0-r2
alpine-keys-2.2-r0
apk-tools-2.12.5-r0
bash-5.1.0-r0
brotli-libs-1.0.9-r3
busybox-1.32.1-r6
busybox-initscripts-3.2-r2
busybox-suid-1.32.1-r6
c-ares-1.17.1-r1
ca-certificates-20191127-r5
ca-certificates-bundle-20191127-r5
coreutils-8.32-r2
expat-2.2.10-r1
git-2.30.2-r0
ifupdown-ng-0.11.2-r0
libacl-2.2.53-r0
libattr-2.4.48-r0
libc-utils-0.7.2-r3
libcrypto1.1-1.1.1k-r0
libcurl-7.76.1-r0
libedit-20191231.3.1-r1
libgcc-10.2.1_pre1-r3
libintl-0.20.2-r2
libproc-3.3.16-r0
libssl1.1-1.1.1k-r0
libstdc++-10.2.1_pre1-r3
libtls-standalone-2.9.1-r1
linux-pam-1.5.1-r0
musl-1.2.2-r0
musl-utils-1.2.2-r0
ncurses-libs-6.2_p20210109-r0
ncurses-terminfo-base-6.2_p20210109-r0
nghttp2-libs-1.42.0-r1
nodejs-14.16.1-r1
npm-14.16.1-r1
openrc-0.42.1-r19
openssh-8.4_p1-r3
openssh-client-8.4_p1-r3
openssh-keygen-8.4_p1-r3
openssh-server-8.4_p1-r3
openssh-server-common-8.4_p1-r3
openssh-sftp-server-8.4_p1-r3
pcre2-10.36-r0
procps-3.3.16-r0
readline-8.1.0-r0
s6-ipcserver-2.10.0.0-r0
scanelf-1.2.8-r0
shadow-4.8.1-r0
skalibs-2.10.0.0-r0
ssl_client-1.32.1-r6
tzdata-2021a-r0
utmps-0.1.0.0-r0
utmps-openrc-0.1.0.0-r0
xz-5.2.5-r0
xz-libs-5.2.5-r0
zlib-1.2.11-r3
